CP02 NBA con Cross Validation y Elastic Net.
…
  tabla_alfa$mse_min[i] <- ajuste$cvm[ajuste$lambda == ajuste$lambda.min] #esa columna la vamos a rellenar con el error cuadratico medio min, asociado a ese lambda
  tabla_alfa$lamda_min[i] <- ajuste$lambda.min #ese lambda que hace ECM min
  tabla_alfa$mse_1se[i] <- ajuste$cvm[ajuste$lambda == ajuste$lambda.1se] #lo rellenamos solo con los errores estandar min para cada alfa 
  tabla_alfa$lamda_1se[i] <- ajuste$lambda.1se #los lambda correpsondientes

}

Vamos a ordenar la tabla para ver que alpha es el que nos proporciona un menor error. Observamos que el menor error esta asociado al alpha 1, por lo que el modelo que min el error es un Lasso

tabla_alfa_ordered <- tabla_alfa %>% 
  arrange(mse_min)
tabla_alfa_ordered

## # A tibble: 51 x 5
##    alpha mse_min lamda_min mse_1se lamda_1se
##    <dbl>   <dbl>     <dbl>   <dbl>     <dbl>
##  1  1       1.15    0.0858    1.24     0.217
##  2  0.98    1.15    0.0875    1.24     0.222
##  3  0.96    1.15    0.0893    1.24     0.226
##  4  0.94    1.15    0.0912    1.24     0.231
##  5  0.92    1.15    0.0932    1.24     0.236
##  6  0.9     1.15    0.0953    1.24     0.242
##  7  0.88    1.16    0.0974    1.24     0.247
##  8  0.86    1.16    0.0997    1.24     0.253
##  9  0.84    1.16    0.102     1.24     0.259
## 10  0.82    1.16    0.105     1.25     0.265
## # … with 41 more rows
…
